<svg width="244" height="239" viewBox="0 0 244 239" fill="none" xmlns="http://www.w3.org/2000/svg">
<path d="M122 0L208.267 35.0007L244 119.5L208.267 203.999L122 239L35.733 203.999L0 119.5L35.733 35.0007L122 0Z" fill="white"/>
<path d="M121.897 179.106C113.365 179.106 105.373 177.648 97.9208 174.732C90.5768 171.816 84.1508 167.766 78.6428 162.582C73.1348 157.29 68.8148 151.188 65.6828 144.276C62.6588 137.256 61.1468 129.75 61.1468 121.758C61.1468 113.118 62.6048 105.234 65.5208 98.106C68.4368 90.978 72.4328 84.876 77.5088 79.8C82.5848 74.616 88.4168 70.62 95.0048 67.812C101.593 65.004 108.613 63.6 116.065 63.6C123.085 63.6 129.295 64.734 134.695 67.002C140.203 69.27 145.009 72.51 149.113 76.722C153.217 80.826 156.673 85.794 159.481 91.626L147.817 88.224V65.868H171.307V104.586L153.973 106.206C152.137 102.318 149.707 98.7 146.683 95.352C143.659 92.004 139.987 89.304 135.667 87.252C131.347 85.2 126.217 84.174 120.277 84.174C116.281 84.174 112.393 84.984 108.613 86.604C104.833 88.224 101.431 90.654 98.4068 93.894C95.3828 97.026 92.9528 100.914 91.1168 105.558C89.3888 110.202 88.5248 115.494 88.5248 121.434C88.5248 126.51 89.3888 131.262 91.1168 135.69C92.8448 140.118 95.2208 144.006 98.2448 147.354C101.269 150.594 104.779 153.186 108.775 155.13C112.879 156.966 117.253 157.884 121.897 157.884C126.217 157.884 130.105 157.398 133.561 156.426C137.017 155.454 140.149 154.05 142.957 152.214C145.765 150.378 148.357 148.164 150.733 145.572C153.109 142.98 155.377 140.064 157.537 136.824L174.385 150.594C171.469 154.914 168.175 158.856 164.503 162.42C160.939 165.876 156.943 168.9 152.515 171.492C148.195 173.976 143.443 175.866 138.259 177.162C133.183 178.458 127.729 179.106 121.897 179.106Z" fill="black"/>
</svg>
